<svg width="26" height="25" viewBox="0 0 26 25" fill="none" xmlns="http://www.w3.org/2000/svg">
<path d="M13 19.1836C16.866 19.1836 20 16.0496 20 12.1836C20 8.3176 16.866 5.18359 13 5.18359C9.13401 5.18359 6 8.3176 6 12.1836C6 16.0496 9.13401 19.1836 13 19.1836Z" stroke="white" stroke-width="2" stroke-linecap="round" stroke-linejoin="round"/>
<path d="M13 8.85199V12.1836H16.2853" stroke="white" stroke-width="2" stroke-linecap="round" stroke-linejoin="round"/>
</svg>
