<svg width="12" height="16" viewBox="0 0 12 16" fill="none" xmlns="http://www.w3.org/2000/svg">
<path d="M6 0.816406C4.41904 0.816327 2.90194 1.44023 1.77843 2.5525C0.654923 3.66477 0.0158096 5.17553 0 6.75641C0 10.8664 5.2875 15.4414 5.5125 15.6364C5.64835 15.7526 5.82124 15.8165 6 15.8165C6.17876 15.8165 6.35165 15.7526 6.4875 15.6364C6.75 15.4414 12 10.8664 12 6.75641C11.9842 5.17553 11.3451 3.66477 10.2216 2.5525C9.09806 1.44023 7.58096 0.816327 6 0.816406ZM6 9.06641C5.48082 9.06641 4.97331 8.91245 4.54163 8.62401C4.10995 8.33558 3.7735 7.92561 3.57482 7.44595C3.37614 6.96629 3.32415 6.43849 3.42544 5.92929C3.52672 5.42009 3.77673 4.95236 4.14384 4.58525C4.51096 4.21814 4.97869 3.96813 5.48789 3.86685C5.99709 3.76556 6.52489 3.81754 7.00454 4.01622C7.4842 4.2149 7.89417 4.55136 8.18261 4.98303C8.47105 5.41471 8.625 5.92223 8.625 6.44141C8.625 7.1376 8.34844 7.80528 7.85616 8.29756C7.36387 8.78984 6.69619 9.06641 6 9.06641Z" fill="#5D2524"/>
</svg>
