<svg width="70" height="70" viewBox="0 0 70 70" fill="none" xmlns="http://www.w3.org/2000/svg">
<path d="M62.1011 53.502C62.0562 53.502 62.0068 53.4975 61.9618 53.493L18.9927 46.7554C18.7231 46.7148 18.4849 46.5481 18.35 46.3092L11.5233 34.1906C11.3526 33.8886 11.3705 33.5191 11.5683 33.2351C11.766 32.9512 12.1076 32.8025 12.4447 32.8566L62.2405 40.7118C62.6764 40.7794 63 41.158 63 41.6042V52.6007C63 52.8621 62.8831 53.1145 62.6854 53.2857C62.5236 53.4254 62.3169 53.502 62.1011 53.502ZM19.7028 45.0428L61.2068 51.5461V42.3703L14.0041 34.9252L19.7028 45.0428Z" fill="#4ABBC1"/>
<path d="M62.1013 57.4456C62.0564 57.4456 62.0114 57.4411 61.971 57.4366L16.8761 50.7035C16.602 50.663 16.3638 50.4962 16.2245 50.2528L6.74621 33.4336C6.72823 33.4066 6.71475 33.375 6.70126 33.3435C6.63835 33.1903 5.14627 29.6029 6.71025 26.1372C8.12593 23.0005 10.5618 21.7656 12.5123 21.8242C13.4111 19.8953 15.6852 17.331 19.6536 17.8357C20.831 16.2313 23.5051 14.2078 27.3701 15.2218C28.3409 14.2799 30.9205 12.1392 33.9856 12.4817C34.3047 12.5042 36.9023 12.7656 38.5112 14.7937C39.6168 16.1908 39.9853 18.0475 39.5988 20.3189L37.8281 20.017C38.1247 18.2729 37.8821 16.8938 37.1046 15.9158C35.9361 14.4421 33.8687 14.2799 33.8508 14.2799C33.8328 14.2799 33.8193 14.2799 33.8013 14.2754C30.9026 13.9374 28.3364 16.8082 28.3094 16.8397C28.0712 17.1101 27.6982 17.2138 27.3566 17.1011C22.9973 15.6725 20.9479 19.1247 20.8625 19.2734C20.6693 19.6069 20.2828 19.7826 19.9097 19.7105C15.3796 18.8092 13.9999 22.9103 13.9459 23.0861C13.8021 23.5323 13.3392 23.7937 12.8853 23.6855C11.537 23.3745 9.5461 24.2353 8.35064 26.8808C7.18664 29.4587 8.20233 32.2348 8.34165 32.5954L17.5727 48.9865L61.2025 55.4987V52.6009H63.0002V56.5488C63.0002 56.8102 62.8878 57.0581 62.6901 57.2293C62.5238 57.369 62.317 57.4456 62.1013 57.4456Z" fill="#4ABBC1"/>
<path d="M61.4945 42.2667L38.3584 21.0624C20.9029 20.6974 13.1683 34.0554 13.0919 34.1906L11.528 33.3028C11.6088 33.154 19.9546 18.7054 38.7494 19.2642C38.9651 19.2687 39.1718 19.3543 39.3291 19.4986L62.7169 40.9327L61.4945 42.2667Z" fill="#4ABBC1"/>
</svg>
