<svg width="24" height="29" viewBox="0 0 24 29" fill="none" xmlns="http://www.w3.org/2000/svg">
<circle cx="12.1409" cy="7.33205" r="5.51564" stroke="#5D2524" stroke-width="2.5" stroke-linecap="round" stroke-linejoin="round"/>
<path d="M2 26.8164V22.9886C2 17.3879 6.54021 12.8477 12.1409 12.8477C17.7415 12.8477 22.2817 17.3879 22.2817 22.9886V26.8164" stroke="#5D2524" stroke-width="2.5" stroke-linecap="round" stroke-linejoin="round"/>
</svg>
