<svg width="24" height="25" viewBox="0 0 24 25" fill="none" xmlns="http://www.w3.org/2000/svg">
<g clip-path="url(#clip0)">
<path d="M20.4844 0.319824H3.51562C1.57727 0.319824 0 1.89709 0 3.83545V20.8042C0 22.7426 1.57727 24.3198 3.51562 24.3198H10.5938V15.8354H7.78125V11.6167H10.5938V8.75732C10.5938 6.43097 12.4861 4.53857 14.8125 4.53857H19.0781V8.75732H14.8125V11.6167H19.0781L18.375 15.8354H14.8125V24.3198H20.4844C22.4227 24.3198 24 22.7426 24 20.8042V3.83545C24 1.89709 22.4227 0.319824 20.4844 0.319824Z" fill="white"/>
</g>
<defs>
<clipPath id="clip0">
<rect width="24" height="24" fill="white" transform="translate(0 0.319824)"/>
</clipPath>
</defs>
</svg>
