<svg width="24" height="25" viewBox="0 0 24 25" fill="none" xmlns="http://www.w3.org/2000/svg">
<g clip-path="url(#clip0)">
<path d="M19.915 13.5314C19.527 13.0414 19.638 12.8234 19.915 12.3854C19.92 12.3804 23.123 7.95442 23.453 6.45342L23.455 6.45242C23.619 5.90542 23.455 5.50342 22.662 5.50342H20.038C19.37 5.50342 19.062 5.84842 18.897 6.23442C18.897 6.23442 17.561 9.43242 15.671 11.5054C15.061 12.1044 14.779 12.2964 14.446 12.2964C14.282 12.2964 14.027 12.1044 14.027 11.5574V6.45242C14.027 5.79642 13.84 5.50342 13.287 5.50342H9.161C8.742 5.50342 8.493 5.80942 8.493 6.09442C8.493 6.71642 9.438 6.85942 9.536 8.60942V12.4064C9.536 13.2384 9.385 13.3914 9.05 13.3914C8.158 13.3914 5.993 10.1804 4.71 6.50542C4.451 5.79242 4.198 5.50442 3.525 5.50442H0.9C0.151 5.50442 0 5.84942 0 6.23542C0 6.91742 0.892 10.3084 4.148 14.7884C6.318 17.8464 9.374 19.5034 12.154 19.5034C13.825 19.5034 14.029 19.1354 14.029 18.5024C14.029 15.5804 13.878 15.3044 14.715 15.3044C15.103 15.3044 15.771 15.4964 17.331 16.9714C19.114 18.7204 19.407 19.5034 20.405 19.5034H23.029C23.777 19.5034 24.156 19.1354 23.938 18.4094C23.439 16.8824 20.067 13.7414 19.915 13.5314Z" fill="#FCF18C"/>
</g>
<defs>
<clipPath id="clip0">
<rect width="24" height="24" fill="white" transform="translate(0 0.503418)"/>
</clipPath>
</defs>
</svg>
