<svg width="24" height="25" viewBox="0 0 24 25" fill="none" xmlns="http://www.w3.org/2000/svg">
<path d="M22.7747 6.87961C22.5154 5.91569 21.7554 5.15585 20.7916 4.8963C19.0309 4.41455 11.988 4.41455 11.988 4.41455C11.988 4.41455 4.94536 4.41455 3.18466 4.87804C2.23943 5.13731 1.46091 5.91583 1.20163 6.87961C0.738281 8.64017 0.738281 12.2913 0.738281 12.2913C0.738281 12.2913 0.738281 15.9609 1.20163 17.7031C1.46118 18.6668 2.22089 19.4267 3.1848 19.6862C4.9639 20.1681 11.9883 20.1681 11.9883 20.1681C11.9883 20.1681 19.0309 20.1681 20.7916 19.7046C21.7555 19.4452 22.5154 18.6854 22.7749 17.7216C23.2381 15.9609 23.2381 12.3099 23.2381 12.3099C23.2381 12.3099 23.2567 8.64017 22.7747 6.87961ZM9.7457 15.6644V8.91826L15.6022 12.2913L9.7457 15.6644Z" fill="#FCF18C"/>
</svg>
